Exploratory Data Analysis
…
# set plot theme
theme_set(theme_minimal(base_size = 12))

tuition_cost <- read_csv("../data/tuition_cost.csv")
tuition_income <- read_csv("../data/tuition_income.csv")
salary_potential <- read_csv("../data/salary_potential.csv")
historical_tuition <- read_csv("../data/historical_tuition.csv")
diversity_school <- read_csv("../data/diversity_school.csv")
states_df <- map_data("state")

tuition_cost

# A tibble: 2,973 × 10
   name     state state_code type  degree_length room_and_board in_state_tuition
   <chr>    <chr> <chr>      <chr> <chr>                  <dbl>            <dbl>
 1 Aaniiih… Mont… MT         Publ… 2 Year                    NA             2380
 2 Abilene… Texas TX         Priv… 4 Year                 10350            34850
 3 Abraham… Geor… GA         Publ… 2 Year                  8474             4128
 4 Academy… Minn… MN         For … 2 Year                    NA            17661
 5 Academy… Cali… CA         For … 4 Year                 16648            27810
 6 Adams S… Colo… CO         Publ… 4 Year                  8782             9440
 7 Adelphi… New … NY         Priv… 4 Year                 16030            38660
 8 Adirond… New … NY         Publ… 2 Year                 11660             5375
 9 Adrian … Mich… MI         Priv… 4 Year                 11318            37087
10 Advance… Virg… VA         For … 2 Year                    NA            13680
# ℹ 2,963 more rows
# ℹ 3 more variables: in_state_total <dbl>, out_of_state_tuition <dbl>,
#   out_of_state_total <dbl>

tuition_income

# A tibble: 295,098 × 7
   name                       state total_price  year campus net_cost income_lvl
   <chr>                      <chr>       <dbl> <dbl> <chr>     <dbl> <chr>     
 1 Piedmont International Un… NC          20174  2016 On Ca…   11475  0 to 30,0…
 2 Piedmont International Un… NC          20174  2016 On Ca…   11451  30,001 to…
 3 Piedmont International Un… NC          20174  2016 On Ca…   16229  48_001 to…
 4 Piedmont International Un… NC          20174  2016 On Ca…   15592  75,001 to…
 5 Piedmont International Un… NC          20514  2017 On Ca…   11668. 0 to 30,0…
 6 Piedmont International Un… NC          20514  2017 On Ca…   11644. 30,001 to…
 7 Piedmont International Un… NC          20514  2017 On Ca…   16503. 48_001 to…
 8 Piedmont International Un… NC          20514  2017 On Ca…   15855. 75,001 to…
 9 Piedmont International Un… NC          20514  2017 On Ca…       0  Over 110,…
10 Piedmont International Un… NC          20829  2018 On Ca…   11848. 0 to 30,0…
# ℹ 295,088 more rows

salary_potential

# A tibble: 925 × 7
    rank name  state_name early_career_pay mid_career_pay make_world_better_pe…¹
   <dbl> <chr> <chr>                 <dbl>          <dbl>                  <dbl>
 1     1 Univ… Alabama               71000         127000                     57
 2     2 Aubu… Alabama               67500         123300                     50
 3     3 Spri… Alabama               56900         123100                     52
 4     4 The … Alabama               65600         113100                     50
 5     5 Birm… Alabama               64200         111600                     40
 6     6 Samf… Alabama               60000         104600                     58
 7     7 Tusk… Alabama               67700         101600                     65
 8     8 Herz… Alabama               59100         101100                     NA
 9     8 Univ… Alabama               59400         101100                     56
10    10 Alab… Alabama               62800          98400                     65
# ℹ 915 more rows
# ℹ abbreviated name: ¹​make_world_better_percent
# ℹ 1 more variable: stem_percent <dbl>

historical_tuition

# A tibble: 270 × 4
   type             year    tuition_type    tuition_cost
   <chr>            <chr>   <chr>                  <dbl>
 1 All Institutions 1985-86 All Constant           10893
 2 All Institutions 1985-86 4 Year Constant        12274
 3 All Institutions 1985-86 2 Year Constant         7508
 4 All Institutions 1985-86 All Current             4885
 5 All Institutions 1985-86 4 Year Current          5504
 6 All Institutions 1985-86 2 Year Current          3367
 7 All Institutions 1995-96 All Constant           13822
 8 All Institutions 1995-96 4 Year Constant        16224
 9 All Institutions 1995-96 2 Year Constant         7421
10 All Institutions 1995-96 All Current             8800
# ℹ 260 more rows

diversity_school

# A tibble: 50,655 × 5
   name                          total_enrollment state   category    enrollment
   <chr>                                    <dbl> <chr>   <chr>            <dbl>
 1 University of Phoenix-Arizona           195059 Arizona Women           134722
 2 University of Phoenix-Arizona           195059 Arizona American I…        876
 3 University of Phoenix-Arizona           195059 Arizona Asian             1959
 4 University of Phoenix-Arizona           195059 Arizona Black            31455
 5 University of Phoenix-Arizona           195059 Arizona Hispanic         13984
 6 University of Phoenix-Arizona           195059 Arizona Native Haw…       1019
 7 University of Phoenix-Arizona           195059 Arizona White            58209
 8 University of Phoenix-Arizona           195059 Arizona Two Or Mor…      19039
 9 University of Phoenix-Arizona           195059 Arizona Unknown          65163
10 University of Phoenix-Arizona           195059 Arizona Non-Reside…       3355
# ℹ 50,645 more rows
…
# Merge the state_mapping with school_data to get full state names
tuition_income_cleaned <- tuition_income %>%
  left_join(state_mapping, by = c("state" = "state_abbrev"))

# Merge the tuition_income_cleaned and average_salaries data frames by the "state_name" column
combined_data <- tuition_income_cleaned %>%
  inner_join(average_salaries, by = "state_name")

# Check data set
combined_data

# A tibble: 294,173 × 11
   name            state total_price  year campus net_cost income_lvl state_name
   <chr>           <chr>       <dbl> <dbl> <chr>     <dbl> <chr>      <chr>     
 1 Piedmont Inter… NC          20174  2016 On Ca…   11475  0 to 30,0… North-Car…
 2 Piedmont Inter… NC          20174  2016 On Ca…   11451  30,001 to… North-Car…
 3 Piedmont Inter… NC          20174  2016 On Ca…   16229  48_001 to… North-Car…
 4 Piedmont Inter… NC          20174  2016 On Ca…   15592  75,001 to… North-Car…
 5 Piedmont Inter… NC          20514  2017 On Ca…   11668. 0 to 30,0… North-Car…
 6 Piedmont Inter… NC          20514  2017 On Ca…   11644. 30,001 to… North-Car…
 7 Piedmont Inter… NC          20514  2017 On Ca…   16503. 48_001 to… North-Car…
 8 Piedmont Inter… NC          20514  2017 On Ca…   15855. 75,001 to… North-Car…
 9 Piedmont Inter… NC          20514  2017 On Ca…       0  Over 110,… North-Car…
10 Piedmont Inter… NC          20829  2018 On Ca…   11848. 0 to 30,0… North-Car…
# ℹ 294,163 more rows
# ℹ 3 more variables: avg_early_career_pay <dbl>, avg_mid_career_pay <dbl>,
#   avg_pay <dbl>
…
# Convert ggplot to a plotly object and customize the tooltip labels
state_avg_plotly <- ggplotly(state_avg_plot, tooltip = "text", name = "")

# Print the interactive plot
print(state_avg_plotly)

state_avg_data

# A tibble: 50 × 3
   state_name  avg_total_price avg_avg_pay
   <chr>                 <dbl>       <dbl>
 1 Alabama              22545.      76738 
 2 Alaska               23812.      88883.
 3 Arizona              23489.      83686.
 4 Arkansas             22523.      73758.
 5 California           34518.     116026 
 6 Colorado             27020.      88372.
 7 Connecticut          36801.      94792.
 8 Delaware             30477.      79640 
 9 Florida              29389.      87152 
10 Georgia              26229.      82920 
# ℹ 40 more rows

state_avg_data2

# A tibble: 50 × 3
   state_name  avg_net_cost avg_avg_pay
   <chr>              <dbl>       <dbl>
 1 Alabama           13878.      76738 
 2 Alaska            12417.      88883.
 3 Arizona           14820.      83686.
 4 Arkansas          12363.      73758.
 5 California        18257.     116026 
 6 Colorado          17252.      88372.
 7 Connecticut       19258.      94792.
 8 Delaware          18608.      79640 
 9 Florida           17522.      87152 
10 Georgia           15512.      82920 
# ℹ 40 more rows
…
